{
    "schemaVersion": 1,
    "label": "license",
    "message": "parity",
    "color": "black",
    "labelColor": "white",
    "logoSvg": "<svg xmlns=\"http://www.w3.org/2000/svg\" xmlns:xlink=\"http://www.w3.org/1999/xlink\" width=\"415.748\" height=\"415.748\" viewBox=\"0 0 110 110\" xmlns:v=\"https://vecta.io/nano\"><g transform=\"matrix(-.489991 -.871727 .871727 -.489991 -23.297547 197.306503)\"><path d=\"M86.1 93.958c-2.921-.028-5.887.237-8.862.819-21.435 4.191-36.221 23.419-35.552 44.587l9.971-1.95a33.94 33.94 0 0 1 27.5-32.821 33.94 33.94 0 0 1 37.835 20.048l9.971-1.95c-6.331-17.104-22.739-28.559-40.864-28.731zm43.582 42.64l-9.971 1.949a33.94 33.94 0 0 1-27.5 32.821 33.94 33.94 0 0 1-37.835-20.047l-9.971 1.95c7.352 19.86 28.292 32.104 49.725 27.913s36.221-23.419 35.552-44.584z\" dominant-baseline=\"auto\" fill-opacity=\".995\"/><path id=\"A\" d=\"M46.998 148.11l11.76-18.134H35.239z\"/><use transform=\"rotate(180 85.685 137.98)\" xlink:href=\"#A\"/></g></svg>",
    "style": "for-the-badge"
}
